…
```python
>>> import quackosm as qosm
>>> gpq_path = qosm.convert_pbf_to_parquet(monaco_pbf_path)
>>> gpq_path.as_posix()
'files/monaco_nofilter_noclip_compact.parquet'
```

#### Inspect the file with duckdb

```python
>>> import duckdb
>>> duckdb.load_extension('spatial')
>>> duckdb.read_parquet(str(gpq_path)).order("feature_id")
┌──────────────────┬──────────────────────┬──────────────────────────────────────────────┐
│    feature_id    │         tags         │                   geometry                   │
│     varchar      │ map(varchar, varch…  │                   geometry                   │
├──────────────────┼──────────────────────┼──────────────────────────────────────────────┤
│ node/10005045289 │ {shop=bakery}        │ POINT (7.4224498 43.7310532)                 │
│ node/10020887517 │ {leisure=swimming_…  │ POINT (7.4131561 43.7338391)                 │
│ node/10021298117 │ {leisure=swimming_…  │ POINT (7.4277743 43.7427669)                 │
│ node/10021298717 │ {leisure=swimming_…  │ POINT (7.4263029 43.7409734)                 │
│ node/10025656383 │ {ferry=yes, name=Q…  │ POINT (7.4254971 43.7369002)                 │
│ node/10025656390 │ {amenity=restauran…  │ POINT (7.4269287 43.7368818)                 │
│ node/10025656391 │ {name=Capitainerie…  │ POINT (7.4272127 43.7359593)                 │
│ node/10025656392 │ {name=Direction de…  │ POINT (7.4270392 43.7365262)                 │
│ node/10025656393 │ {name=IQOS, openin…  │ POINT (7.4275175 43.7373195)                 │
│ node/10025656394 │ {artist_name=Anna …  │ POINT (7.4293446 43.737448)                  │
│       ·          │          ·           │              ·                               │
│       ·          │          ·           │              ·                               │
│       ·          │          ·           │              ·                               │
│ way/986864693    │ {natural=bare_rock}  │ POLYGON ((7.4340482 43.745598, 7.4340263 4…  │
│ way/986864694    │ {barrier=wall}       │ LINESTRING (7.4327547 43.7445382, 7.432808…  │
│ way/986864695    │ {natural=bare_rock}  │ POLYGON ((7.4332994 43.7449315, 7.4332912 …  │
│ way/986864696    │ {barrier=wall}       │ LINESTRING (7.4356006 43.7464325, 7.435574…  │
│ way/986864697    │ {natural=bare_rock}  │ POLYGON ((7.4362767 43.74697, 7.4362983 43…  │
│ way/990669427    │ {amenity=shelter, …  │ POLYGON ((7.4146087 43.733883, 7.4146192 4…  │
│ way/990669428    │ {highway=secondary…  │ LINESTRING (7.4136598 43.7334433, 7.413640…  │
│ way/990669429    │ {highway=secondary…  │ LINESTRING (7.4137621 43.7334251, 7.413746…  │
│ way/990848785    │ {addr:city=Monaco,…  │ POLYGON ((7.4142551 43.7339622, 7.4143113 …  │
│ way/993121275    │ {building=yes, nam…  │ POLYGON ((7.4321416 43.7481309, 7.4321638 …  │
├──────────────────┴──────────────────────┴──────────────────────────────────────────────┤
│ 7906 rows (20 shown)                                                         3 columns │
└────────────────────────────────────────────────────────────────────────────────────────┘
```
…
